Event: 1
-11, 12.8934, 7.85445e-06, 60.6453, -0.607368, 3864.5125, Stave00
-11, 12.8934, 1.12134e-06, 60.6453, -0.607356, 3864.5125, Stave00
Event: 2
-11, 12.8955, 5.0954e-06, 79.0785, -0.925664, 3864.5125, Stave00






